...........
----------------------------------------------------------------------
Ran 11 tests in 0.002s

OK
Name               Stmts   Miss Branch BrPart  Cover   Missing
--------------------------------------------------------------
Diplomacy.py          55      0     42      0   100%
TestDiplomacy.py      66      0      2      1    99%   108->exit
--------------------------------------------------------------
TOTAL                121      0     44      1    99%
