.................
----------------------------------------------------------------------
Ran 17 tests in 0.003s

OK
Name               Stmts   Miss Branch BrPart  Cover   Missing
--------------------------------------------------------------
Diplomacy.py         112      1     86      3    98%   95, 94->95, 112->115, 123->125
TestDiplomacy.py      89      0      0      0   100%
--------------------------------------------------------------
TOTAL                201      1     86      3    99%
