...........................
----------------------------------------------------------------------
Ran 27 tests in 0.032s

OK
Name             Stmts   Miss Branch BrPart  Cover   Missing
------------------------------------------------------------
Collatz.py          51      0     18      0   100%
TestCollatz.py     169      0     16      0   100%
------------------------------------------------------------
TOTAL              220      0     34      0   100%
